…
## -- Conflicts ---------------------------------------------------------------------------------------------- tidyverse_conflicts() --
## x dplyr::filter() masks stats::filter()
## x dplyr::lag()    masks stats::lag()

Lab 4 Deliverable

Part 1: Tidying

We’ll start by reading in the excel data file and cleaning up the column names.

broadband <- readxl::read_excel("gapminder_broadband_per_100.xlsx")
janitor::clean_names(broadband)

## # A tibble: 213 x 15
##    fixed_broadband~ x1998 x1999 x2000    x2001   x2002    x2003    x2004
##    <chr>            <dbl> <dbl> <dbl>    <dbl>   <dbl>    <dbl>    <dbl>
##  1 Afghanistan         NA    NA    NA  0.      0.       0.       6.88e-4
##  2 Albania             NA    NA    NA  0.      0.       0.       0.     
##  3 Algeria             NA    NA    NA  0.      0.       5.64e-2  1.11e-1
##  4 American Samoa      NA    NA    NA  0.      0.      NA       NA      
##  5 Andorra             NA    NA    NA NA       1.66e+0  4.99e+0  8.34e+0
##  6 Angola              NA    NA    NA  0.      0.       0.       0.     
##  7 Antigua and Bar~    NA    NA    NA  0.      0.       0.       1.21e-1
##  8 Argentina            0    NA    NA  2.52e-1 3.93e-1  6.81e-1  1.42e+0
##  9 Armenia             NA    NA    NA  1.96e-4 2.61e-4  3.27e-4  3.27e-2
## 10 Aruba               NA    NA    NA  0.      0.       1.44e+0  7.03e+0
## # ... with 203 more rows, and 7 more variables: x2005 <dbl>, x2006 <dbl>,
## #   x2007 <dbl>, x2008 <dbl>, x2009 <dbl>, x2010 <dbl>, x2011 <lgl>

Next, let’s get tidy our data. We’ll rename the “Fixed broadband Internet subscribers (per 100 people)” column to “country”, get the data into three columns: country, year, and fixed broadband internet subscribers (per 100 people), and then arrange by the country column.

broadband_tidy <- broadband %>%
  rename(country = `Fixed broadband Internet subscribers (per 100 people)`) %>% 
  gather(year, `Fixed broadband Internet subscribers (per 100 people)`, -country, na.rm = TRUE) %>% 
  arrange(country)
broadband_tidy

## # A tibble: 2,108 x 3
##    country     year  `Fixed broadband Internet subscribers (per 100 people)`
##    <chr>       <chr>                                                   <dbl>
##  1 Afghanistan 2001                                                 0       
##  2 Afghanistan 2002                                                 0       
##  3 Afghanistan 2003                                                 0       
##  4 Afghanistan 2004                                                 0.000688
##  5 Afghanistan 2005                                                 0.000736
##  6 Afghanistan 2006                                                 0.00163 
##  7 Afghanistan 2007                                                 0.00158 
##  8 Afghanistan 2008                                                 0.00154 
##  9 Afghanistan 2009                                                 0.00299 
## 10 Afghanistan 2010                                                 0.00436 
## # ... with 2,098 more rows
…
Using dplyr, it is very easy to manipulate the data to get what we want for this task, in a fairly readable format. Just two functions were used: group_by to get the data focused on continents, and then summarise to get the statistical information we wanted, minimum and maximum, out. As for the companion graph, I elected to keep it simple and show exactly what is in the table using two different dots for each continent. An open circle shows the minimum and a solid black dot shows the maximum. For this task, a graph is not really needed, as it is pretty easy to just glance at the table and see all of the relevant information.

Life expectancy vs. GDP per capita in 2007

For this task, we’ll be looking at the relationship between life expectancy and GDP per capita for the most recent year available in the gapminder dataset.

Table

gapminder_recent <- gapminder %>% 
  filter(year == 2007) %>% 
  select(country, continent, lifeExp, gdpPercap)
gapminder_recent %>% 
  arrange(lifeExp)

## # A tibble: 142 x 4
##    country                  continent lifeExp gdpPercap
##    <fct>                    <fct>       <dbl>     <dbl>
##  1 Swaziland                Africa       39.6     4513.
##  2 Mozambique               Africa       42.1      824.
##  3 Zambia                   Africa       42.4     1271.
##  4 Sierra Leone             Africa       42.6      863.
##  5 Lesotho                  Africa       42.6     1569.
##  6 Angola                   Africa       42.7     4797.
##  7 Zimbabwe                 Africa       43.5      470.
##  8 Afghanistan              Asia         43.8      975.
##  9 Central African Republic Africa       44.7      706.
## 10 Liberia                  Africa       45.7      415.
## # ... with 132 more rows
…
