…
all_institutions %>% 
  group_by(Institution)

## # A tibble: 539 x 9
## # Groups:   Institution [17]
##    Institution Year  `Great deal` `Quite a lot`  Some `Very little`
##    <chr>       <chr>        <dbl>         <dbl> <dbl>         <dbl>
##  1 The church~ 2019            21            15    36            25
##  2 The church~ 2018            20            18    33            24
##  3 The church~ 2017            23            18    29            25
##  4 The church~ 2016            20            21    31            24
##  5 The church~ 2015            25            17    32            20
##  6 The church~ 2014            25            20    29            20
##  7 The church~ 2013            25            23    32            17
##  8 The church~ 2012            25            19    29            22
##  9 The church~ 2011            25            23    29            20
## 10 The church~ 2010            25            23    30            18
## # ... with 529 more rows, and 3 more variables: `None (vol.)` <chr>, `No
## #   opinion` <chr>, `Great deal/Quite a lot` <dbl>
…
