…
Let’s take a quick look at the data.

glimpse(hot.dogs)

Rows: 49
Columns: 4
$ year      <dbl> 2017, 2017, 2016, 2016, 2015, 2015, 2014, 2014, 2013, 201...
$ gender    <fct> male, female, male, female, male, female, male, female, m...
$ name      <chr> "Joey Chestnut", "Miki Sudo", "Joey Chestnut", "Miki Sudo...
$ num_eaten <dbl> 72.000, 41.000, 70.000, 38.000, 62.000, 38.000, 61.000, 3...

hot.dogs

# A tibble: 49 x 4
    year gender name           num_eaten
   <dbl> <fct>  <chr>              <dbl>
 1  2017 male   Joey Chestnut       72  
 2  2017 female Miki Sudo           41  
 3  2016 male   Joey Chestnut       70  
 4  2016 female Miki Sudo           38  
 5  2015 male   Matthew Stonie      62  
 6  2015 female Miki Sudo           38  
 7  2014 male   Joey Chestnut       61  
 8  2014 female Miki Sudo           34  
 9  2013 male   Joey Chestnut       69  
10  2013 female Sonya Thomas        36.8
# ... with 39 more rows

Looks good! We want to differentiate between years before and after the incorporation of the competitive eating league, so we’ll add an indicator field to the data using mutate(). Since the data pre-1981 is a little sketchy, let’s filter that out as well.

hot.dogs <- hot.dogs %>% 
  mutate(post_ifoce = year >= 1997) %>% 
  filter(year >= 1981 & gender == "male")
hot.dogs

# A tibble: 37 x 5
    year gender name           num_eaten post_ifoce
   <dbl> <fct>  <chr>              <dbl> <lgl>     
 1  2017 male   Joey Chestnut         72 TRUE      
 2  2016 male   Joey Chestnut         70 TRUE      
 3  2015 male   Matthew Stonie        62 TRUE      
 4  2014 male   Joey Chestnut         61 TRUE      
 5  2013 male   Joey Chestnut         69 TRUE      
 6  2012 male   Joey Chestnut         68 TRUE      
 7  2011 male   Joey Chestnut         62 TRUE      
 8  2010 male   Joey Chestnut         54 TRUE      
 9  2009 male   Joey Chestnut         68 TRUE      
10  2008 male   Joey Chestnut         59 TRUE      
# ... with 27 more rows
…
